[
    {
        "10": [
            [
                60.0,
                64.14059450386213,
                68.61268392256238,
                73.44280765242682,
                78.65962982692173,
                84.2941094225543,
                90.37968398340723,
                96.95246805461171,
                104.05146750235234,
                111.7188109922757,
                119.99999999999996
            ],
            [
                [
                    0.08168223818601582,
                    0.07740096154407648,
                    0.07342692946106139,
                    0.06975420321474445,
                    0.06637668939411508,
                    0.06328828380043765,
                    0.06048300494853366,
                    0.0579551172956733,
                    0.05569924459168657,
                    0.05371047395704306,
                    0.051984451460386105
                ]
            ]
        ]
    }
]